%!PS-Adobe-3.0 EPSF-3.0
%%Creator: (MATLAB, The Mathworks, Inc. Version 9.5.0.944444 \(R2018b\). Operating System: Windows 10)
%%Title: F:/EE/fig/output_data_size.eps
%%CreationDate: 2020-05-22T16:42:58
%%Pages: (atend)
%%BoundingBox: 0 0 420 295
%%LanguageLevel: 3
%%EndComments
%%BeginProlog
%%BeginResource: procset (Apache XML Graphics Std ProcSet) 1.2 0
%%Version: 1.2 0
%%Copyright: (Copyright 2001-2003,2010 The Apache Software Foundation. License terms: http://www.apache.org/licenses/LICENSE-2.0)
/bd{bind def}bind def
/ld{load def}bd
/GR/grestore ld
/GS/gsave ld
/RM/rmoveto ld
/C/curveto ld
/t/show ld
/L/lineto ld
/ML/setmiterlimit ld
/CT/concat ld
/f/fill ld
/N/newpath ld
/S/stroke ld
/CC/setcmykcolor ld
/A/ashow ld
/cp/closepath ld
/RC/setrgbcolor ld
/LJ/setlinejoin ld
/GC/setgray ld
/LW/setlinewidth ld
/M/moveto ld
/re {4 2 roll M
1 index 0 rlineto
0 exch rlineto
neg 0 rlineto
cp } bd
/_ctm matrix def
/_tm matrix def
/BT { _ctm currentmatrix pop matrix _tm copy pop 0 0 moveto } bd
/ET { _ctm setmatrix } bd
/iTm { _ctm setmatrix _tm concat } bd
/Tm { _tm astore pop iTm 0 0 moveto } bd
/ux 0.0 def
/uy 0.0 def
/F {
  /Tp exch def
  /Tf exch def
  Tf findfont Tp scalefont setfont
  /cf Tf def  /cs Tp def
} bd
/ULS {currentpoint /uy exch def /ux exch def} bd
/ULE {
  /Tcx currentpoint pop def
  gsave
  newpath
  cf findfont cs scalefont dup
  /FontMatrix get 0 get /Ts exch def /FontInfo get dup
  /UnderlinePosition get Ts mul /To exch def
  /UnderlineThickness get Ts mul /Tt exch def
  ux uy To add moveto  Tcx uy To add lineto
  Tt setlinewidth stroke
  grestore
} bd
/OLE {
  /Tcx currentpoint pop def
  gsave
  newpath
  cf findfont cs scalefont dup
  /FontMatrix get 0 get /Ts exch def /FontInfo get dup
  /UnderlinePosition get Ts mul /To exch def
  /UnderlineThickness get Ts mul /Tt exch def
  ux uy To add cs add moveto Tcx uy To add cs add lineto
  Tt setlinewidth stroke
  grestore
} bd
/SOE {
  /Tcx currentpoint pop def
  gsave
  newpath
  cf findfont cs scalefont dup
  /FontMatrix get 0 get /Ts exch def /FontInfo get dup
  /UnderlinePosition get Ts mul /To exch def
  /UnderlineThickness get Ts mul /Tt exch def
  ux uy To add cs 10 mul 26 idiv add moveto Tcx uy To add cs 10 mul 26 idiv add lineto
  Tt setlinewidth stroke
  grestore
} bd
/QT {
/Y22 exch store
/X22 exch store
/Y21 exch store
/X21 exch store
currentpoint
/Y21 load 2 mul add 3 div exch
/X21 load 2 mul add 3 div exch
/X21 load 2 mul /X22 load add 3 div
/Y21 load 2 mul /Y22 load add 3 div
/X22 load /Y22 load curveto
} bd
/SSPD {
dup length /d exch dict def
{
/v exch def
/k exch def
currentpagedevice k known {
/cpdv currentpagedevice k get def
v cpdv ne {
/upd false def
/nullv v type /nulltype eq def
/nullcpdv cpdv type /nulltype eq def
nullv nullcpdv or
{
/upd true def
} {
/sametype v type cpdv type eq def
sametype {
v type /arraytype eq {
/vlen v length def
/cpdvlen cpdv length def
vlen cpdvlen eq {
0 1 vlen 1 sub {
/i exch def
/obj v i get def
/cpdobj cpdv i get def
obj cpdobj ne {
/upd true def
exit
} if
} for
} {
/upd true def
} ifelse
} {
v type /dicttype eq {
v {
/dv exch def
/dk exch def
/cpddv cpdv dk get def
dv cpddv ne {
/upd true def
exit
} if
} forall
} {
/upd true def
} ifelse
} ifelse
} if
} ifelse
upd true eq {
d k v put
} if
} if
} if
} forall
d length 0 gt {
d setpagedevice
} if
} bd
/RE { % /NewFontName [NewEncodingArray] /FontName RE -
  findfont dup length dict begin
  {
    1 index /FID ne
    {def} {pop pop} ifelse
  } forall
  /Encoding exch def
  /FontName 1 index def
  currentdict definefont pop
  end
} bind def
%%EndResource
%%BeginResource: procset (Apache XML Graphics EPS ProcSet) 1.0 0
%%Version: 1.0 0
%%Copyright: (Copyright 2002-2003 The Apache Software Foundation. License terms: http://www.apache.org/licenses/LICENSE-2.0)
/BeginEPSF { %def
/b4_Inc_state save def         % Save state for cleanup
/dict_count countdictstack def % Count objects on dict stack
/op_count count 1 sub def      % Count objects on operand stack
userdict begin                 % Push userdict on dict stack
/showpage { } def              % Redefine showpage, { } = null proc
0 setgray 0 setlinecap         % Prepare graphics state
1 setlinewidth 0 setlinejoin
10 setmiterlimit [ ] 0 setdash newpath
/languagelevel where           % If level not equal to 1 then
{pop languagelevel             % set strokeadjust and
1 ne                           % overprint to their defaults.
{false setstrokeadjust false setoverprint
} if
} if
} bd
/EndEPSF { %def
count op_count sub {pop} repeat            % Clean up stacks
countdictstack dict_count sub {end} repeat
b4_Inc_state restore
} bd
%%EndResource
%FOPBeginFontDict
%%IncludeResource: font Courier-Oblique
%%IncludeResource: font Courier-BoldOblique
%%IncludeResource: font Courier-Bold
%%IncludeResource: font ZapfDingbats
%%IncludeResource: font Symbol
%%IncludeResource: font Helvetica
%%IncludeResource: font Helvetica-Oblique
%%IncludeResource: font Helvetica-Bold
%%IncludeResource: font Helvetica-BoldOblique
%%IncludeResource: font Times-Roman
%%IncludeResource: font Times-Italic
%%IncludeResource: font Times-Bold
%%IncludeResource: font Times-BoldItalic
%%IncludeResource: font Courier
%FOPEndFontDict
%%BeginResource: encoding WinAnsiEncoding
/WinAnsiEncoding [
/.notdef /.notdef /.notdef /.notdef /.notdef
/.notdef /.notdef /.notdef /.notdef /.notdef
/.notdef /.notdef /.notdef /.notdef /.notdef
/.notdef /.notdef /.notdef /.notdef /.notdef
/.notdef /.notdef /.notdef /.notdef /.notdef
/.notdef /.notdef /.notdef /.notdef /.notdef
/.notdef /.notdef /space /exclam /quotedbl
/numbersign /dollar /percent /ampersand /quotesingle
/parenleft /parenright /asterisk /plus /comma
/hyphen /period /slash /zero /one
/two /three /four /five /six
/seven /eight /nine /colon /semicolon
/less /equal /greater /question /at
/A /B /C /D /E
/F /G /H /I /J
/K /L /M /N /O
/P /Q /R /S /T
/U /V /W /X /Y
/Z /bracketleft /backslash /bracketright /asciicircum
/underscore /quoteleft /a /b /c
/d /e /f /g /h
/i /j /k /l /m
/n /o /p /q /r
/s /t /u /v /w
/x /y /z /braceleft /bar
/braceright /asciitilde /bullet /Euro /bullet
/quotesinglbase /florin /quotedblbase /ellipsis /dagger
/daggerdbl /circumflex /perthousand /Scaron /guilsinglleft
/OE /bullet /Zcaron /bullet /bullet
/quoteleft /quoteright /quotedblleft /quotedblright /bullet
/endash /emdash /asciitilde /trademark /scaron
/guilsinglright /oe /bullet /zcaron /Ydieresis
/space /exclamdown /cent /sterling /currency
/yen /brokenbar /section /dieresis /copyright
/ordfeminine /guillemotleft /logicalnot /sfthyphen /registered
/macron /degree /plusminus /twosuperior /threesuperior
/acute /mu /paragraph /middot /cedilla
/onesuperior /ordmasculine /guillemotright /onequarter /onehalf
/threequarters /questiondown /Agrave /Aacute /Acircumflex
/Atilde /Adieresis /Aring /AE /Ccedilla
/Egrave /Eacute /Ecircumflex /Edieresis /Igrave
/Iacute /Icircumflex /Idieresis /Eth /Ntilde
/Ograve /Oacute /Ocircumflex /Otilde /Odieresis
/multiply /Oslash /Ugrave /Uacute /Ucircumflex
/Udieresis /Yacute /Thorn /germandbls /agrave
/aacute /acircumflex /atilde /adieresis /aring
/ae /ccedilla /egrave /eacute /ecircumflex
/edieresis /igrave /iacute /icircumflex /idieresis
/eth /ntilde /ograve /oacute /ocircumflex
/otilde /odieresis /divide /oslash /ugrave
/uacute /ucircumflex /udieresis /yacute /thorn
/ydieresis
] def
%%EndResource
%FOPBeginFontReencode
/Courier-Oblique findfont
dup length dict begin
  {1 index /FID ne {def} {pop pop} ifelse} forall
  /Encoding WinAnsiEncoding def
  currentdict
end
/Courier-Oblique exch definefont pop
/Courier-BoldOblique findfont
dup length dict begin
  {1 index /FID ne {def} {pop pop} ifelse} forall
  /Encoding WinAnsiEncoding def
  currentdict
end
/Courier-BoldOblique exch definefont pop
/Courier-Bold findfont
dup length dict begin
  {1 index /FID ne {def} {pop pop} ifelse} forall
  /Encoding WinAnsiEncoding def
  currentdict
end
/Courier-Bold exch definefont pop
/Helvetica findfont
dup length dict begin
  {1 index /FID ne {def} {pop pop} ifelse} forall
  /Encoding WinAnsiEncoding def
  currentdict
end
/Helvetica exch definefont pop
/Helvetica-Oblique findfont
dup length dict begin
  {1 index /FID ne {def} {pop pop} ifelse} forall
  /Encoding WinAnsiEncoding def
  currentdict
end
/Helvetica-Oblique exch definefont pop
/Helvetica-Bold findfont
dup length dict begin
  {1 index /FID ne {def} {pop pop} ifelse} forall
  /Encoding WinAnsiEncoding def
  currentdict
end
/Helvetica-Bold exch definefont pop
/Helvetica-BoldOblique findfont
dup length dict begin
  {1 index /FID ne {def} {pop pop} ifelse} forall
  /Encoding WinAnsiEncoding def
  currentdict
end
/Helvetica-BoldOblique exch definefont pop
/Times-Roman findfont
dup length dict begin
  {1 index /FID ne {def} {pop pop} ifelse} forall
  /Encoding WinAnsiEncoding def
  currentdict
end
/Times-Roman exch definefont pop
/Times-Italic findfont
dup length dict begin
  {1 index /FID ne {def} {pop pop} ifelse} forall
  /Encoding WinAnsiEncoding def
  currentdict
end
/Times-Italic exch definefont pop
/Times-Bold findfont
dup length dict begin
  {1 index /FID ne {def} {pop pop} ifelse} forall
  /Encoding WinAnsiEncoding def
  currentdict
end
/Times-Bold exch definefont pop
/Times-BoldItalic findfont
dup length dict begin
  {1 index /FID ne {def} {pop pop} ifelse} forall
  /Encoding WinAnsiEncoding def
  currentdict
end
/Times-BoldItalic exch definefont pop
/Courier findfont
dup length dict begin
  {1 index /FID ne {def} {pop pop} ifelse} forall
  /Encoding WinAnsiEncoding def
  currentdict
end
/Courier exch definefont pop
%FOPEndFontReencode
%%EndProlog
%%Page: 1 1
%%PageBoundingBox: 0 0 420 295
%%BeginPageSetup
[1 0 0 -1 0 295] CT
%%EndPageSetup
GS
[0.75 0 0 0.75 0 0.25] CT
1 GC
N
0 0 560 393 re
f
GR
GS
[0.75 0 0 0.75 0 0.25] CT
1 GC
N
0 0 560 393 re
f
GR
GS
[0.75 0 0 0.75 0 0.25] CT
1 GC
N
73 331 M
515 331 L
515 29 L
73 29 L
cp
f
GR
GS
[0.75 0 0 0.75 0 0.25] CT
0.873 GC
1 LJ
0.667 LW
N
99.714 331 M
99.714 29 L
S
GR
GS
[0.75 0 0 0.75 0 0.25] CT
0.873 GC
1 LJ
0.667 LW
N
124 331 M
124 29 L
S
GR
GS
[0.75 0 0 0.75 0 0.25] CT
0.873 GC
1 LJ
0.667 LW
N
148.286 331 M
148.286 29 L
S
GR
GS
[0.75 0 0 0.75 0 0.25] CT
0.873 GC
1 LJ
0.667 LW
N
172.571 331 M
172.571 29 L
S
GR
GS
[0.75 0 0 0.75 0 0.25] CT
0.873 GC
1 LJ
0.667 LW
N
196.857 331 M
196.857 29 L
S
GR
GS
[0.75 0 0 0.75 0 0.25] CT
0.873 GC
1 LJ
0.667 LW
N
221.143 331 M
221.143 29 L
S
GR
GS
[0.75 0 0 0.75 0 0.25] CT
0.873 GC
1 LJ
0.667 LW
N
245.429 331 M
245.429 29 L
S
GR
GS
[0.75 0 0 0.75 0 0.25] CT
0.873 GC
1 LJ
0.667 LW
N
269.714 331 M
269.714 29 L
S
GR
GS
[0.75 0 0 0.75 0 0.25] CT
0.873 GC
1 LJ
0.667 LW
N
294 331 M
294 29 L
S
GR
GS
[0.75 0 0 0.75 0 0.25] CT
0.873 GC
1 LJ
0.667 LW
N
318.286 331 M
318.286 29 L
S
GR
GS
[0.75 0 0 0.75 0 0.25] CT
0.873 GC
1 LJ
0.667 LW
N
342.571 331 M
342.571 29 L
S
GR
GS
[0.75 0 0 0.75 0 0.25] CT
0.873 GC
1 LJ
0.667 LW
N
366.857 331 M
366.857 29 L
S
GR
GS
[0.75 0 0 0.75 0 0.25] CT
0.873 GC
1 LJ
0.667 LW
N
391.143 331 M
391.143 29 L
S
GR
GS
[0.75 0 0 0.75 0 0.25] CT
0.873 GC
1 LJ
0.667 LW
N
415.429 331 M
415.429 29 L
S
GR
GS
[0.75 0 0 0.75 0 0.25] CT
0.873 GC
1 LJ
0.667 LW
N
439.714 331 M
439.714 29 L
S
GR
GS
[0.75 0 0 0.75 0 0.25] CT
0.873 GC
1 LJ
0.667 LW
N
464 331 M
464 29 L
S
GR
GS
[0.75 0 0 0.75 0 0.25] CT
0.873 GC
1 LJ
0.667 LW
N
488.286 331 M
488.286 29 L
S
GR
GS
[0.75 0 0 0.75 0 0.25] CT
0.873 GC
1 LJ
0.667 LW
N
515 331 M
73 331 L
S
GR
GS
[0.75 0 0 0.75 0 0.25] CT
0.873 GC
1 LJ
0.667 LW
N
515 280.667 M
73 280.667 L
S
GR
GS
[0.75 0 0 0.75 0 0.25] CT
0.873 GC
1 LJ
0.667 LW
N
515 230.333 M
73 230.333 L
S
GR
GS
[0.75 0 0 0.75 0 0.25] CT
0.873 GC
1 LJ
0.667 LW
N
515 180 M
73 180 L
S
GR
GS
[0.75 0 0 0.75 0 0.25] CT
0.873 GC
1 LJ
0.667 LW
N
515 129.667 M
73 129.667 L
S
GR
GS
[0.75 0 0 0.75 0 0.25] CT
0.873 GC
1 LJ
0.667 LW
N
515 79.333 M
73 79.333 L
S
GR
GS
[0.75 0 0 0.75 0 0.25] CT
0.873 GC
1 LJ
0.667 LW
N
515 29 M
73 29 L
S
GR
GS
[0.75 0 0 0.75 0 0.25] CT
0.149 GC
1 LJ
0.667 LW
N
73 331 M
515 331 L
S
GR
GS
[0.75 0 0 0.75 0 0.25] CT
0 0.447 0.741 RC
N
107 331 M
107 283.183 L
92.429 283.183 L
92.429 331 L
cp
131.286 331 M
131.286 74.3 L
116.714 74.3 L
116.714 331 L
cp
155.571 331 M
155.571 268.587 L
141 268.587 L
141 331 L
cp
179.857 331 M
179.857 204.663 L
165.286 204.663 L
165.286 331 L
cp
204.143 331 M
204.143 300.8 L
189.571 300.8 L
189.571 331 L
cp
228.429 331 M
228.429 269.593 L
213.857 269.593 L
213.857 331 L
cp
252.714 331 M
252.714 312.377 L
238.143 312.377 L
238.143 331 L
cp
277 331 M
277 300.297 L
262.429 300.297 L
262.429 331 L
cp
301.286 331 M
301.286 320.933 L
286.714 320.933 L
286.714 331 L
cp
325.571 331 M
325.571 314.893 L
311 314.893 L
311 331 L
cp
349.857 331 M
349.857 326.973 L
335.286 326.973 L
335.286 331 L
cp
374.143 331 M
374.143 325.463 L
359.571 325.463 L
359.571 331 L
cp
398.429 331 M
398.429 325.463 L
383.857 325.463 L
383.857 331 L
cp
422.714 331 M
422.714 315.9 L
408.143 315.9 L
408.143 331 L
cp
447 331 M
447 316.403 L
432.429 316.403 L
432.429 331 L
cp
471.286 331 M
471.286 329.49 L
456.714 329.49 L
456.714 331 L
cp
f
GR
GS
[0.75 0 0 0.75 0 0.25] CT
10.0 ML
0.667 LW
N
92.429 331 M
92.429 283.183 L
107 283.183 L
107 331 L
cp
S
GR
GS
[0.75 0 0 0.75 0 0.25] CT
10.0 ML
0.667 LW
N
116.714 331 M
116.714 74.3 L
131.286 74.3 L
131.286 331 L
cp
S
GR
GS
[0.75 0 0 0.75 0 0.25] CT
10.0 ML
0.667 LW
N
141 331 M
141 268.587 L
155.571 268.587 L
155.571 331 L
cp
S
GR
GS
[0.75 0 0 0.75 0 0.25] CT
10.0 ML
0.667 LW
N
165.286 331 M
165.286 204.663 L
179.857 204.663 L
179.857 331 L
cp
S
GR
GS
[0.75 0 0 0.75 0 0.25] CT
10.0 ML
0.667 LW
N
189.571 331 M
189.571 300.8 L
204.143 300.8 L
204.143 331 L
cp
S
GR
GS
[0.75 0 0 0.75 0 0.25] CT
10.0 ML
0.667 LW
N
213.857 331 M
213.857 269.593 L
228.429 269.593 L
228.429 331 L
cp
S
GR
GS
[0.75 0 0 0.75 0 0.25] CT
10.0 ML
0.667 LW
N
238.143 331 M
238.143 312.377 L
252.714 312.377 L
252.714 331 L
cp
S
GR
GS
[0.75 0 0 0.75 0 0.25] CT
10.0 ML
0.667 LW
N
262.429 331 M
262.429 300.297 L
277 300.297 L
277 331 L
cp
S
GR
GS
[0.75 0 0 0.75 0 0.25] CT
10.0 ML
0.667 LW
N
286.714 331 M
286.714 320.933 L
301.286 320.933 L
301.286 331 L
cp
S
GR
GS
[0.75 0 0 0.75 0 0.25] CT
10.0 ML
0.667 LW
N
311 331 M
311 314.893 L
325.571 314.893 L
325.571 331 L
cp
S
GR
GS
[0.75 0 0 0.75 0 0.25] CT
10.0 ML
0.667 LW
N
335.286 331 M
335.286 326.973 L
349.857 326.973 L
349.857 331 L
cp
S
GR
GS
[0.75 0 0 0.75 0 0.25] CT
10.0 ML
0.667 LW
N
359.571 331 M
359.571 325.463 L
374.143 325.463 L
374.143 331 L
cp
S
GR
GS
[0.75 0 0 0.75 0 0.25] CT
10.0 ML
0.667 LW
N
383.857 331 M
383.857 325.463 L
398.429 325.463 L
398.429 331 L
cp
S
GR
GS
[0.75 0 0 0.75 0 0.25] CT
10.0 ML
0.667 LW
N
408.143 331 M
408.143 315.9 L
422.714 315.9 L
422.714 331 L
cp
S
GR
GS
[0.75 0 0 0.75 0 0.25] CT
10.0 ML
0.667 LW
N
432.429 331 M
432.429 316.403 L
447 316.403 L
447 331 L
cp
S
GR
GS
[0.75 0 0 0.75 0 0.25] CT
10.0 ML
0.667 LW
N
456.714 331 M
456.714 329.49 L
471.286 329.49 L
471.286 331 L
cp
S
GR
GS
[0.75 0 0 0.75 0 0.25] CT
10.0 ML
0.667 LW
N
481 331 M
481 331 L
495.571 331 L
495.571 331 L
cp
S
GR
GS
[0.75 0 0 0.75 0 0.25] CT
0.149 GC
2 setlinecap
1 LJ
0.667 LW
N
73 331 M
515 331 L
S
GR
GS
[0.75 0 0 0.75 0 0.25] CT
0.149 GC
2 setlinecap
1 LJ
0.667 LW
N
73 29 M
515 29 L
S
GR
GS
[0.75 0 0 0.75 0 0.25] CT
0.149 GC
2 setlinecap
1 LJ
0.667 LW
N
99.714 331 M
99.714 326.58 L
S
GR
GS
[0.75 0 0 0.75 0 0.25] CT
0.149 GC
2 setlinecap
1 LJ
0.667 LW
N
124 331 M
124 326.58 L
S
GR
GS
[0.75 0 0 0.75 0 0.25] CT
0.149 GC
2 setlinecap
1 LJ
0.667 LW
N
148.286 331 M
148.286 326.58 L
S
GR
GS
[0.75 0 0 0.75 0 0.25] CT
0.149 GC
2 setlinecap
1 LJ
0.667 LW
N
172.571 331 M
172.571 326.58 L
S
GR
GS
[0.75 0 0 0.75 0 0.25] CT
0.149 GC
2 setlinecap
1 LJ
0.667 LW
N
196.857 331 M
196.857 326.58 L
S
GR
GS
[0.75 0 0 0.75 0 0.25] CT
0.149 GC
2 setlinecap
1 LJ
0.667 LW
N
221.143 331 M
221.143 326.58 L
S
GR
GS
[0.75 0 0 0.75 0 0.25] CT
0.149 GC
2 setlinecap
1 LJ
0.667 LW
N
245.429 331 M
245.429 326.58 L
S
GR
GS
[0.75 0 0 0.75 0 0.25] CT
0.149 GC
2 setlinecap
1 LJ
0.667 LW
N
269.714 331 M
269.714 326.58 L
S
GR
GS
[0.75 0 0 0.75 0 0.25] CT
0.149 GC
2 setlinecap
1 LJ
0.667 LW
N
294 331 M
294 326.58 L
S
GR
GS
[0.75 0 0 0.75 0 0.25] CT
0.149 GC
2 setlinecap
1 LJ
0.667 LW
N
318.286 331 M
318.286 326.58 L
S
GR
GS
[0.75 0 0 0.75 0 0.25] CT
0.149 GC
2 setlinecap
1 LJ
0.667 LW
N
342.571 331 M
342.571 326.58 L
S
GR
GS
[0.75 0 0 0.75 0 0.25] CT
0.149 GC
2 setlinecap
1 LJ
0.667 LW
N
366.857 331 M
366.857 326.58 L
S
GR
GS
[0.75 0 0 0.75 0 0.25] CT
0.149 GC
2 setlinecap
1 LJ
0.667 LW
N
391.143 331 M
391.143 326.58 L
S
GR
GS
[0.75 0 0 0.75 0 0.25] CT
0.149 GC
2 setlinecap
1 LJ
0.667 LW
N
415.429 331 M
415.429 326.58 L
S
GR
GS
[0.75 0 0 0.75 0 0.25] CT
0.149 GC
2 setlinecap
1 LJ
0.667 LW
N
439.714 331 M
439.714 326.58 L
S
GR
GS
[0.75 0 0 0.75 0 0.25] CT
0.149 GC
2 setlinecap
1 LJ
0.667 LW
N
464 331 M
464 326.58 L
S
GR
GS
[0.75 0 0 0.75 0 0.25] CT
0.149 GC
2 setlinecap
1 LJ
0.667 LW
N
488.286 331 M
488.286 326.58 L
S
GR
GS
[0.75 0 0 0.75 0 0.25] CT
0.149 GC
2 setlinecap
1 LJ
0.667 LW
N
99.714 29 M
99.714 33.42 L
S
GR
GS
[0.75 0 0 0.75 0 0.25] CT
0.149 GC
2 setlinecap
1 LJ
0.667 LW
N
124 29 M
124 33.42 L
S
GR
GS
[0.75 0 0 0.75 0 0.25] CT
0.149 GC
2 setlinecap
1 LJ
0.667 LW
N
148.286 29 M
148.286 33.42 L
S
GR
GS
[0.75 0 0 0.75 0 0.25] CT
0.149 GC
2 setlinecap
1 LJ
0.667 LW
N
172.571 29 M
172.571 33.42 L
S
GR
GS
[0.75 0 0 0.75 0 0.25] CT
0.149 GC
2 setlinecap
1 LJ
0.667 LW
N
196.857 29 M
196.857 33.42 L
S
GR
GS
[0.75 0 0 0.75 0 0.25] CT
0.149 GC
2 setlinecap
1 LJ
0.667 LW
N
221.143 29 M
221.143 33.42 L
S
GR
GS
[0.75 0 0 0.75 0 0.25] CT
0.149 GC
2 setlinecap
1 LJ
0.667 LW
N
245.429 29 M
245.429 33.42 L
S
GR
GS
[0.75 0 0 0.75 0 0.25] CT
0.149 GC
2 setlinecap
1 LJ
0.667 LW
N
269.714 29 M
269.714 33.42 L
S
GR
GS
[0.75 0 0 0.75 0 0.25] CT
0.149 GC
2 setlinecap
1 LJ
0.667 LW
N
294 29 M
294 33.42 L
S
GR
GS
[0.75 0 0 0.75 0 0.25] CT
0.149 GC
2 setlinecap
1 LJ
0.667 LW
N
318.286 29 M
318.286 33.42 L
S
GR
GS
[0.75 0 0 0.75 0 0.25] CT
0.149 GC
2 setlinecap
1 LJ
0.667 LW
N
342.571 29 M
342.571 33.42 L
S
GR
GS
[0.75 0 0 0.75 0 0.25] CT
0.149 GC
2 setlinecap
1 LJ
0.667 LW
N
366.857 29 M
366.857 33.42 L
S
GR
GS
[0.75 0 0 0.75 0 0.25] CT
0.149 GC
2 setlinecap
1 LJ
0.667 LW
N
391.143 29 M
391.143 33.42 L
S
GR
GS
[0.75 0 0 0.75 0 0.25] CT
0.149 GC
2 setlinecap
1 LJ
0.667 LW
N
415.429 29 M
415.429 33.42 L
S
GR
GS
[0.75 0 0 0.75 0 0.25] CT
0.149 GC
2 setlinecap
1 LJ
0.667 LW
N
439.714 29 M
439.714 33.42 L
S
GR
GS
[0.75 0 0 0.75 0 0.25] CT
0.149 GC
2 setlinecap
1 LJ
0.667 LW
N
464 29 M
464 33.42 L
S
GR
GS
[0.75 0 0 0.75 0 0.25] CT
0.149 GC
2 setlinecap
1 LJ
0.667 LW
N
488.286 29 M
488.286 33.42 L
S
GR
GS
[0 -0.75 0.75 0 74.78572 252.50001] CT
0.149 GC
/Helvetica 13.333 F
GS
[1 0 0 1 0 0] CT
-29 5.5 moveto 
1 -1 scale
(input) t 
GR
GR
GS
[0 -0.75 0.75 0 93 252.50001] CT
0.149 GC
/Helvetica 13.333 F
GS
[1 0 0 1 0 0] CT
-36 5.5 moveto 
1 -1 scale
(conv1) t 
GR
GR
GS
[0 -0.75 0.75 0 111.21429 252.50001] CT
0.149 GC
/Helvetica 13.333 F
GS
[1 0 0 1 0 0] CT
-33 5.5 moveto 
1 -1 scale
(max1) t 
GR
GR
GS
[0 -0.75 0.75 0 129.42857 252.50001] CT
0.149 GC
/Helvetica 13.333 F
GS
[1 0 0 1 0 0] CT
-36 5.5 moveto 
1 -1 scale
(conv2) t 
GR
GR
GS
[0 -0.75 0.75 0 147.64286 252.50001] CT
0.149 GC
/Helvetica 13.333 F
GS
[1 0 0 1 0 0] CT
-33 5.5 moveto 
1 -1 scale
(max2) t 
GR
GR
GS
[0 -0.75 0.75 0 165.85714 252.50001] CT
0.149 GC
/Helvetica 13.333 F
GS
[1 0 0 1 0 0] CT
-36 5.5 moveto 
1 -1 scale
(conv3) t 
GR
GR
GS
[0 -0.75 0.75 0 184.07143 252.50001] CT
0.149 GC
/Helvetica 13.333 F
GS
[1 0 0 1 0 0] CT
-33 5.5 moveto 
1 -1 scale
(max3) t 
GR
GR
GS
[0 -0.75 0.75 0 202.28572 252.50001] CT
0.149 GC
/Helvetica 13.333 F
GS
[1 0 0 1 0 0] CT
-36 5.5 moveto 
1 -1 scale
(conv4) t 
GR
GR
GS
[0 -0.75 0.75 0 220.5 252.50001] CT
0.149 GC
/Helvetica 13.333 F
GS
[1 0 0 1 0 0] CT
-33 5.5 moveto 
1 -1 scale
(max4) t 
GR
GR
GS
[0 -0.75 0.75 0 238.71428 252.50001] CT
0.149 GC
/Helvetica 13.333 F
GS
[1 0 0 1 0 0] CT
-36 5.5 moveto 
1 -1 scale
(conv5) t 
GR
GR
GS
[0 -0.75 0.75 0 256.92858 252.50001] CT
0.149 GC
/Helvetica 13.333 F
GS
[1 0 0 1 0 0] CT
-33 5.5 moveto 
1 -1 scale
(max5) t 
GR
GR
GS
[0 -0.75 0.75 0 275.14286 252.50001] CT
0.149 GC
/Helvetica 13.333 F
GS
[1 0 0 1 0 0] CT
-36 5.5 moveto 
1 -1 scale
(conv6) t 
GR
GR
GS
[0 -0.75 0.75 0 293.35714 252.50001] CT
0.149 GC
/Helvetica 13.333 F
GS
[1 0 0 1 0 0] CT
-33 5.5 moveto 
1 -1 scale
(max6) t 
GR
GR
GS
[0 -0.75 0.75 0 311.57142 252.50001] CT
0.149 GC
/Helvetica 13.333 F
GS
[1 0 0 1 0 0] CT
-36 5.5 moveto 
1 -1 scale
(conv7) t 
GR
GR
GS
[0 -0.75 0.75 0 329.78572 252.50001] CT
0.149 GC
/Helvetica 13.333 F
GS
[1 0 0 1 0 0] CT
-36 5.5 moveto 
1 -1 scale
(conv8) t 
GR
GR
GS
[0 -0.75 0.75 0 348 252.50001] CT
0.149 GC
/Helvetica 13.333 F
GS
[1 0 0 1 0 0] CT
-36 5.5 moveto 
1 -1 scale
(conv9) t 
GR
GR
GS
[0 -0.75 0.75 0 366.21428 252.50001] CT
0.149 GC
/Helvetica 13.333 F
GS
[1 0 0 1 0 0] CT
-38 5.5 moveto 
1 -1 scale
(output) t 
GR
GR
GS
[0.75 0 0 0.75 220.50016 281.99999] CT
0.149 GC
/Helvetica 14.667 F
GS
[1 0 0 1 0 0] CT
-18.5 15 moveto 
1 -1 scale
(Layer) t 
GR
GR
GS
[0.75 0 0 0.75 0 0.25] CT
0.149 GC
2 setlinecap
1 LJ
0.667 LW
N
73 331 M
73 29 L
S
GR
GS
[0.75 0 0 0.75 0 0.25] CT
0.149 GC
2 setlinecap
1 LJ
0.667 LW
N
515 331 M
515 29 L
S
GR
GS
[0.75 0 0 0.75 0 0.25] CT
0.149 GC
2 setlinecap
1 LJ
0.667 LW
N
73 331 M
77.42 331 L
S
GR
GS
[0.75 0 0 0.75 0 0.25] CT
0.149 GC
2 setlinecap
1 LJ
0.667 LW
N
73 280.667 M
77.42 280.667 L
S
GR
GS
[0.75 0 0 0.75 0 0.25] CT
0.149 GC
2 setlinecap
1 LJ
0.667 LW
N
73 230.333 M
77.42 230.333 L
S
GR
GS
[0.75 0 0 0.75 0 0.25] CT
0.149 GC
2 setlinecap
1 LJ
0.667 LW
N
73 180 M
77.42 180 L
S
GR
GS
[0.75 0 0 0.75 0 0.25] CT
0.149 GC
2 setlinecap
1 LJ
0.667 LW
N
73 129.667 M
77.42 129.667 L
S
GR
GS
[0.75 0 0 0.75 0 0.25] CT
0.149 GC
2 setlinecap
1 LJ
0.667 LW
N
73 79.333 M
77.42 79.333 L
S
GR
GS
[0.75 0 0 0.75 0 0.25] CT
0.149 GC
2 setlinecap
1 LJ
0.667 LW
N
73 29 M
77.42 29 L
S
GR
GS
[0.75 0 0 0.75 0 0.25] CT
0.149 GC
2 setlinecap
1 LJ
0.667 LW
N
515 331 M
510.58 331 L
S
GR
GS
[0.75 0 0 0.75 0 0.25] CT
0.149 GC
2 setlinecap
1 LJ
0.667 LW
N
515 280.667 M
510.58 280.667 L
S
GR
GS
[0.75 0 0 0.75 0 0.25] CT
0.149 GC
2 setlinecap
1 LJ
0.667 LW
N
515 230.333 M
510.58 230.333 L
S
GR
GS
[0.75 0 0 0.75 0 0.25] CT
0.149 GC
2 setlinecap
1 LJ
0.667 LW
N
515 180 M
510.58 180 L
S
GR
GS
[0.75 0 0 0.75 0 0.25] CT
0.149 GC
2 setlinecap
1 LJ
0.667 LW
N
515 129.667 M
510.58 129.667 L
S
GR
GS
[0.75 0 0 0.75 0 0.25] CT
0.149 GC
2 setlinecap
1 LJ
0.667 LW
N
515 79.333 M
510.58 79.333 L
S
GR
GS
[0.75 0 0 0.75 0 0.25] CT
0.149 GC
2 setlinecap
1 LJ
0.667 LW
N
515 29 M
510.58 29 L
S
GR
GS
[0.75 0 0 0.75 50.75 248.5] CT
0.149 GC
/Helvetica 13.333 F
GS
[1 0 0 1 0 0] CT
-8 5.5 moveto 
1 -1 scale
(0) t 
GR
GR
GS
[0.75 0 0 0.75 50.75 210.74999] CT
0.149 GC
/Helvetica 13.333 F
GS
[1 0 0 1 0 0] CT
-8 5.5 moveto 
1 -1 scale
(1) t 
GR
GR
GS
[0.75 0 0 0.75 50.75 173] CT
0.149 GC
/Helvetica 13.333 F
GS
[1 0 0 1 0 0] CT
-8 5.5 moveto 
1 -1 scale
(2) t 
GR
GR
GS
[0.75 0 0 0.75 50.75 135.25] CT
0.149 GC
/Helvetica 13.333 F
GS
[1 0 0 1 0 0] CT
-8 5.5 moveto 
1 -1 scale
(3) t 
GR
GR
GS
[0.75 0 0 0.75 50.75 97.5] CT
0.149 GC
/Helvetica 13.333 F
GS
[1 0 0 1 0 0] CT
-8 5.5 moveto 
1 -1 scale
(4) t 
GR
GR
GS
[0.75 0 0 0.75 50.75 59.75] CT
0.149 GC
/Helvetica 13.333 F
GS
[1 0 0 1 0 0] CT
-8 5.5 moveto 
1 -1 scale
(5) t 
GR
GR
GS
[0.75 0 0 0.75 50.75 22] CT
0.149 GC
/Helvetica 13.333 F
GS
[1 0 0 1 0 0] CT
-8 5.5 moveto 
1 -1 scale
(6) t 
GR
GR
GS
[0 -0.75 0.75 0 41.75 135.2499] CT
0.149 GC
/Helvetica 14.667 F
GS
[1 0 0 1 0 0] CT
-74 -4 moveto 
1 -1 scale
(Output Data Size \(MB\)) t 
GR
GR
%%Trailer
%%Pages: 1
%%EOF
