% This file was created by matlab2tikz.
%
%The latest updates can be retrieved from
%  http://www.mathworks.com/matlabcentral/fileexchange/22022-matlab2tikz-matlab2tikz
%where you can also make suggestions and rate matlab2tikz.
%
\definecolor{mycolor1}{rgb}{0.00000,0.70000,0.80000}%
\definecolor{mycolor2}{rgb}{0.00000,0.44700,0.74100}%
%
\begin{tikzpicture}

\begin{axis}[%
width=4.521in,
height=3.566in,
at={(0.758in,0.481in)},
scale only axis,
bar shift auto,
xmin=-0.05,
xmax=7.05,
xtick={1,2,3,4,5,6},
xticklabels={{ResNet},{GoogLeNet},{VGG},{ILSVRC13},{AlexNet},{ILSVRC11}},
ymin=0,
ymax=40,
ytick={ 0, 20, 40},
ylabel style={font=\color{white!15!black}},
ylabel={top-5 error(\%)},
axis background/.style={fill=white},
title={Revolution of Depth},
legend style={legend cell align=left, align=left, draw=white!15!black}
]
\addlegendimage{/pgfplots/refstyle=plotyyref:leg0}
\addlegendentry{data2}
\addplot[ybar, bar width=0.5, fill=mycolor1, draw=black, area legend] table[row sep=crcr] {%
1	3.57\\
2	6.7\\
3	7.3\\
4	11.7\\
5	16.4\\
6	25.8\\
};
\addplot[forget plot, color=white!15!black] table[row sep=crcr] {%
-0.05	0\\
7.05	0\\
};
\addlegendentry{data1}

\end{axis}

\begin{axis}[%
width=4.521in,
height=3.566in,
at={(0.758in,0.481in)},
scale only axis,
xmin=-0.05,
xmax=7.05,
every outer y axis line/.append style={mycolor2},
every y tick label/.append style={font=\color{mycolor2}},
every y tick/.append style={mycolor2},
ymin=0,
ymax=200,
ytick={  0, 100, 200},
ylabel style={font=\color{mycolor2}},
ylabel={Layers},
axis x line*=bottom,
axis y line*=right,
legend style={legend cell align=left, align=left, draw=white!15!black}
]
\addlegendimage{/pgfplots/refstyle=plotyyref:leg0}
\addlegendentry{data1}
\addplot [color=red, line width=2.0pt, mark size=1.5pt, mark=o, mark options={solid, red}]
  table[row sep=crcr]{%
1	152\\
2	22\\
3	19\\
4	8\\
5	8\\
6	1\\
};
\addlegendentry{data2}

\end{axis}
\end{tikzpicture}%